<?xml version="1.0" encoding="UTF-8" standalone="no"?>
<svg
   width="128"
   height="128"
   viewBox="0 0 33.866666 33.866666"
   version="1.1"
   id="svg974"
   sodipodi:docname="org.gnome.gitlab.ilhooq.Bookup.svg"
   inkscape:version="1.4 (e7c3feb100, 2024-10-09)"
   inkscape:export-filename="org.gnome.gitlab.ilhooq.Bookup.png"
   inkscape:export-xdpi="96"
   inkscape:export-ydpi="96"
   xmlns:inkscape="http://www.inkscape.org/namespaces/inkscape"
   xmlns:sodipodi="http://sodipodi.sourceforge.net/DTD/sodipodi-0.dtd"
   xmlns:xlink="http://www.w3.org/1999/xlink"
   xmlns="http://www.w3.org/2000/svg"
   xmlns:svg="http://www.w3.org/2000/svg"
   xmlns:rdf="http://www.w3.org/1999/02/22-rdf-syntax-ns#"
   xmlns:cc="http://creativecommons.org/ns#"
   xmlns:dc="http://purl.org/dc/elements/1.1/">
  <title
     id="title4512">Bookup Icon</title>
  <sodipodi:namedview
     pagecolor="#ffffff"
     bordercolor="#666666"
     borderopacity="1"
     objecttolerance="10"
     gridtolerance="10"
     guidetolerance="10"
     inkscape:pageopacity="0"
     inkscape:pageshadow="2"
     inkscape:window-width="1920"
     inkscape:window-height="1011"
     id="namedview22"
     showgrid="false"
     units="px"
     showguides="true"
     inkscape:guide-bbox="true"
     inkscape:zoom="3.9774757"
     inkscape:cx="82.212947"
     inkscape:cy="69.893576"
     inkscape:window-x="0"
     inkscape:window-y="0"
     inkscape:window-maximized="1"
     inkscape:current-layer="g905"
     inkscape:showpageshadow="2"
     inkscape:pagecheckerboard="0"
     inkscape:deskcolor="#d1d1d1" />
  <defs
     id="defs968">
    <linearGradient
       inkscape:collect="always"
       id="linearGradient893">
      <stop
         style="stop-color:#1a5fb4;stop-opacity:1;"
         offset="0"
         id="stop889" />
      <stop
         style="stop-color:#62a0ea;stop-opacity:1;"
         offset="1"
         id="stop891" />
    </linearGradient>
    <clipPath
       clipPathUnits="userSpaceOnUse"
       id="clipPath18689">
      <rect
         clip-path="none"
         transform="rotate(45)"
         ry="32.000008"
         rx="32.000008"
         y="123.9986"
         x="486.03726"
         height="362.94299"
         width="362.94299"
         id="rect18691"
         style="display:inline;opacity:1;vector-effect:none;fill:#4a86cf;fill-opacity:1;stroke:none;stroke-width:26.06690025;stroke-linecap:butt;stroke-linejoin:miter;stroke-miterlimit:4;stroke-dasharray:none;stroke-dashoffset:0;stroke-opacity:1;marker:none;marker-start:none;marker-mid:none;marker-end:none;paint-order:normal;enable-background:new" />
    </clipPath>
    <clipPath
       clipPathUnits="userSpaceOnUse"
       id="clipPath18689-3">
      <rect
         clip-path="none"
         transform="rotate(45)"
         ry="32.000008"
         rx="32.000008"
         y="123.9986"
         x="486.03726"
         height="362.94299"
         width="362.94299"
         id="rect18691-6"
         style="display:inline;opacity:1;vector-effect:none;fill:#4a86cf;fill-opacity:1;stroke:none;stroke-width:26.06690025;stroke-linecap:butt;stroke-linejoin:miter;stroke-miterlimit:4;stroke-dasharray:none;stroke-dashoffset:0;stroke-opacity:1;marker:none;marker-start:none;marker-mid:none;marker-end:none;paint-order:normal;enable-background:new" />
    </clipPath>
    <linearGradient
       inkscape:collect="always"
       xlink:href="#linearGradient893"
       id="linearGradient895"
       x1="14.648653"
       y1="20.801649"
       x2="30.228645"
       y2="0.74722385"
       gradientUnits="userSpaceOnUse" />
  </defs>
  <metadata
     id="metadata971">
    <rdf:RDF>
      <cc:Work
         rdf:about="">
        <dc:format>image/svg+xml</dc:format>
        <dc:type
           rdf:resource="http://purl.org/dc/dcmitype/StillImage" />
        <cc:license
           rdf:resource="http://creativecommons.org/licenses/by/4.0/" />
        <dc:title>Bookup Icon</dc:title>
        <dc:creator>
          <cc:Agent>
            <dc:title>Sylvain PHILIP</dc:title>
          </cc:Agent>
        </dc:creator>
      </cc:Work>
      <cc:License
         rdf:about="http://creativecommons.org/licenses/by/4.0/">
        <cc:permits
           rdf:resource="http://creativecommons.org/ns#Reproduction" />
        <cc:permits
           rdf:resource="http://creativecommons.org/ns#Distribution" />
        <cc:requires
           rdf:resource="http://creativecommons.org/ns#Notice" />
        <cc:requires
           rdf:resource="http://creativecommons.org/ns#Attribution" />
        <cc:permits
           rdf:resource="http://creativecommons.org/ns#DerivativeWorks" />
      </cc:License>
    </rdf:RDF>
  </metadata>
  <g
     id="g905"
     transform="translate(-1.4829098,0.56748277)">
    <path
       sodipodi:nodetypes="ccccccccssssc"
       inkscape:connector-curvature="0"
       id="rect863"
       d="M 8.6379429,0.78816434 30.228645,0.74722384 V 28.221516 h -1.617782 l 0.01193,2.953555 1.605852,0.02019 v 0.672257 l -1.201493,0.0083 H 8.6379429 c -1.1268927,0 -2.0341022,-1.0544 -2.0341022,-2.364125 v -26.3594 c 0,-1.3097251 0.9072095,-2.36412466 2.0341022,-2.36412466 z"
       style="opacity:1;fill:url(#linearGradient895);fill-opacity:1;stroke:none;stroke-width:0.488296;stroke-linejoin:miter;stroke-miterlimit:4;stroke-dasharray:none;stroke-opacity:1" />
    <path
       style="fill:#deddda;fill-opacity:1;stroke:none;stroke-width:0.393033;stroke-linejoin:miter;stroke-miterlimit:4;stroke-dasharray:none;stroke-opacity:1"
       d="m 9.081267,28.234346 h 20.618082 c 0,0 -0.537292,0.413343 -0.53975,1.455361 -0.0025,1.042016 0.53975,1.507972 0.53975,1.507972 H 9.081267 c -0.796412,0 -1.4375671,-0.660824 -1.4375671,-1.481666 0,-0.820844 0.6411551,-1.481667 1.4375671,-1.481667 z"
       id="path861-5"
       inkscape:connector-curvature="0"
       sodipodi:nodetypes="sczcsss" />
    <path
       id="path861-7"
       style="fill:#aeaba3;fill-opacity:1;stroke:none;stroke-width:0.393033;stroke-linejoin:miter;stroke-miterlimit:4;stroke-dasharray:none;stroke-opacity:1"
       d="M 9.0814123 28.218873 C 8.2850003 28.218873 7.6437739 28.879593 7.6437739 29.700437 C 7.6437739 30.180107 7.8635386 30.604076 8.2044632 30.874525 C 8.1469168 30.713958 8.1140295 30.540985 8.1140295 30.359311 C 8.1140295 29.538467 8.7552556 28.877231 9.5516678 28.877231 L 29.289481 28.877231 C 29.449087 28.419613 29.699275 28.218873 29.699275 28.218873 L 9.0814123 28.218873 z " />
    <rect
       ry="1.1559669"
       y="6.5984926"
       x="12.56524"
       height="8.3254461"
       width="13.189752"
       id="rect897"
       style="opacity:1;fill:#deddda;fill-opacity:1;stroke:none;stroke-width:0.416074;stroke-linejoin:miter;stroke-miterlimit:4;stroke-dasharray:none;stroke-opacity:1" />
    <rect
       y="0.74722385"
       x="24.658882"
       height="31.128492"
       width="2.8105795"
       id="rect855"
       style="opacity:1;fill:#174888;fill-opacity:1;stroke:none;stroke-width:0.459079;stroke-linejoin:miter;stroke-miterlimit:4;stroke-dasharray:none;stroke-opacity:1" />
    <rect
       y="28.185667"
       x="24.658882"
       height="3.6900492"
       width="2.8105795"
       id="rect855-3"
       style="fill:#0d305a;fill-opacity:1;stroke:none;stroke-width:0.158061;stroke-linejoin:miter;stroke-miterlimit:4;stroke-dasharray:none;stroke-opacity:1" />
  </g>
</svg>
